6
10
14
21
28
35
44
55
65
78
92
103
122
137
149
172
185
212
228
253
273
304
323
356
380
410
433
469
493
515
543
599
619
680
695
739
761
794
847
899
928
953
1021
1060
1172
1153
1164
1272
1322
1398
1413
1441
1487
1634
1632
1767
1792
1741
1863
1972
1935
2072
2175
2241
2306
2284
2353
2402
2468
2574
2720
2760
2795
2920
2943
3051
3185
3253
3417
3349
3453
3543
3571
3644
3854
3970
3907
3847
4033
4112
4465
4467
4407
4856
4735
4920
4892
4988
5049
5142
5185
5544
5551
5567
5982
5838
6128
6026
6091
6372
6375
6504
6699
6568
7041
6844
6768
7316
7223
7652
7321
7773
7846
8032
7916
8054
8560
8510
8537
8693
8753
9173
8664
9525
9257
9569
9708
9795
9484
9924
9925
10436
10630
10892
10673
11167
11204
10887
11396
11786
11215
12241
11735
11729
12578
12863
12963
12902
13045
13388
13186
13080
13701
13523
13870
13842
14283
14692
14704
14780
14418
14305
15965
15490
15499
16146
16042
16297
15755
15826
15924
17132
17237
16875
17732
17068
18056
18152
18246
18299
18085
18439
18480
19014
19144
19454
19253
19643
20656
20761
20471
21596
20835
20955
21666
21580
21310
21166
22315
22535
22668
22535
23317
22475
23056
23983
22120
23322
23455
24368
24228
25595
25292
25487
25787
25659
25507
25502
26711
26835
26851
27698
26778
26836
27601
28111
28495
27965
28879
28258
28796
28972
29551
30086
30145
31149
31587
31487
30713
32751
31233
33208
32914
31897
32963
33427
32552
33701
32848
34223
34996
35815
35122
35589
34717
35124
35137
36426
34278
36492
37327
37242
37851
37613
38355
37993
39060
37595
38835
39907
38717
38363
40427
38871
38642
40392
41167
42412
41771
43384
42013
41844
43304
44430
42347
43113
43443
44101
44463
43938
44332
44388
45699
46294
45858
46456
46923
46976
47741
47971
47244
50661
48885
47963
48827
49970
50409
50055
50366
50242
50999
51763
51739
51798
53194
52238
55116
53141
53626
55322
54547
54214
54643
54130
55148
57245
58670
56854
55900
57081
59956
57360
57650
58352
57977
59752
58342
59017
62207
60336
61628
61957
59930
60290
60511
62218
62374
64985
61827
63977
63676
66053
64374
66887
62103
66862
66003
68479
66224
65778
67209
67820
71779
66924
71093
67620
71306
67512
70612
72351
71653
72117
69609
73206
75257
74145
74603
77295
71844
74562
75623
71710
78214
77152
76567
80741
80961
81970
77336
76322
80629
75772
81545
77988
77229
80518
80751
81409
80597
82586
85884
82578
82906
86505
85712
82401
81202
87385
86900
87432
86525
85798
84669
86630
87914
87825
91266
87001
89700
91685
90655
93181
90225
90929
92937
92402
95145
94886
94764
94109
93418
93775
93951
96987
98505
100504
98859
96184
96553
99573
100974
102159
103044
97621
103189
101449
102357
103606
102134
105118
102698
104409
101417
105454
100716
106577
103920
111306
109427
107981
107416
107776
113961
106552
114823
107640
111953
109015
113165
109786
114907
116549
115043
115745
116824
113854
115791
115679
121022
116706
117131
114227
117989
120623
116839
123231
119157
116400
115883
115976
125520
125818
123341
124592
118798
123047
122217
127765
124976
130714
128163
127458
131969
133615
129778
125641
126254
131799
130679
131815
134015
125430
131544
134702
134340
132613
132803
134559
136854
137708
137817
139884
136905
140745
139364
143960
143430
138848
142344
141910
143164
140878
144956
136671
142992
145564
149368
148886
142370
147976
146497
147846
148371
147713
148716
147177
148061
152173
152858
155091
152307
154602
151434
154623
152982
154069
151233
157352
153747
151958
162890
161569
154168
162614
162833
163231
159160
156302
162920
161565
160950
166898
161877
166197
161779
167507
170927
166055
173163
166673
170824
170664
166477
176392
169175
170269
162814
172449
175621
172978
169544
181272
178651
177788
176140
176883
177724
180329
178041
180118
186472
180748
187174
183049
187299
185918
181257
184718
189101
181899
182668
189525
182056
184830
176933
193053
194830
191109
192459
184553
194655
194107
186945
198135
191224
197991
190243
196805
190377
201364
194602
198166
202347
198039
212496
198828
204718
204391
194025
203127
201494
208975
208248
209969
211900
207254
201457
204978
209776
204824
214390
212672
212713
213638
219730
210858
204606
213071
215277
218327
229153
225013
219422
216732
218454
219012
218850
222125
215987
219868
228474
229771
229338
228908
221288
226884
234283
224686
232366
234192
228708
230996
227037
233745
237489
227413
218498
238195
241504
237116
230664
230242
238684
241718
240747
236822
240632
240201
244941
244474
244363
245991
248780
247473
242296
253823
251017
240964
254743
259493
261297
257052
258976
251778
250299
258341
257905
248645
253629
258011
249392
257187
257690
259216
265133
258505
262173
271366
274107
268431
262606
257562
258679
267046
259884
270597
262910
268109
276443
267449
